{"summary":"Create and get credential set","description":"Creates and gets a credential set.","operations":{"post":{"description":"Creates a credential set.","parameters":"","requestBody":{"content":"application/json","schema":{"title":"credentialSet","type":"object","properties":{"uniqueId":{"type":"string"},"name":{"type":"string","description":"Credential set name.\n"},"secure":{"type":"boolean"},"port":{"type":"integer"},"snmpVersion":{"type":"string"},"description":{"type":"string"},"autoEnableMode":{"type":"boolean"},"universal":{"type":"boolean"},"spSecure":{"type":"boolean"},"spPort":{"type":"integer"},"timeoutMs":{"type":"integer","description":"Time out, represented in milliseconds."},"credentialType":{"type":"string","description":"Credential type.","enum":["AWS","SNMP","WINDOWS","VNC","VMWARE"]},"domainName\t":{"type":"string","description":"Domain name."},"userName":{"type":"string","description":"Credentials of user."},"password":{"type":"string","description":"Credentials of user."},"transportType":{"type":"string","description":"Transport layer type.","enum":["HTTP","SNMP","SSH","TELNET"]},"community":{"type":"string"},"spUserName":{"type":"string"},"spPassword":{"type":"string"},"spAuthScope":{"type":"string"},"fileAuthScope":{"type":"string"},"esxUserName":{"type":"string"},"esxPassword":{"type":"string"},"spNameSpace":{"type":"string"},"authProtocol":{"type":"string"},"encryptPassword":{"type":"string"},"snmpContext":{"type":"string"},"securityLevel":{"type":"string","description":"Security level.","enum":["NOAUTHNOPRIV","AUTHPRIV","AUTHNOPRIV","BASIC","OAUTH2"]},"securityName":{"type":"string"},"apiEndPoint":{"type":"string"},"accountId":{"type":"string"},"accountName":{"type":"string"},"accountKey":{"type":"string"},"managementCertificate":{"type":"string"},"managementCertificatePassphrase":{"type":"string"},"sshCredentialType":{"type":"string","description":"SSH credential type.","enum":["PASSWORD","KEYPAIR"]},"collectorType":{"type":"string","description":"Collector type.","enum":["API","CLI","APIANDCLI","SMIS","UNKNOWN"]},"assignedDevices":{"type":"array","items":{"title":"device","type":"object","properties":{"id":{"type":"string"},"generalInfo":{"type":"object","properties":{"osName":{"type":"string"},"ipAddresses":{"type":"string"},"hostName":{"type":"string"},"dns":{"type":"string"},"deviceType":{"type":"string"},"macAddress":{"type":"string"},"createdTime":{"type":"string","format":"date-time"},"updatedTime":{"type":"string","format":"date-time"}}},"bios":{"type":"object"},"status":{"type":"string"},"state":{"type":"string"},"clientUniqueId":{"type":"string"},"ipAddress":{"type":"string"},"type":{"type":"string"},"uniqueId":{"type":"string"}}}},"enablePassword":{"type":"string"},"syncDataTS":{"type":"integer"},"assignedUsers":{"type":"array","items":{"title":"user","type":"object","properties":{"loginName":{"type":"string","description":"User login name."},"lastName":{"type":"string","description":"User last name"},"firstName":{"type":"string","description":"User first name."},"email":{"type":"string","description":"Email of the user. (Alert and report notifications are sent to the email address.)"},"id":{"type":"string"},"changePassword":{"type":"boolean"},"designation":{"type":"string","description":"(Optional) User designation."},"address":{"type":"string","description":"(Optional) User address."},"city":{"type":"string","description":"(Optional) City name."},"state":{"type":"string","description":"(Optional) State name.\n"},"zip":{"type":"string","description":"(Optional) Zip code.\n"},"country":{"type":"string","description":"Country name. To get the list of countries, use Get Countries API.\n"},"altEmail":{"type":"string"},"phoneNumber":{"type":"string","description":"(Optional) User phone number.\n"},"mobileNumber":{"type":"string","description":"(Optional) User mobile number.\n"},"timeZone":{"type":"object","description":"Time zone of the country. Use the Get Timezones API to get the list of timezones.\n\nExample: \"timeZone\": { \"code\": \"EST\"}","properties":{"code":{"type":"string"},"id":{"type":"string"},"name":{"type":"string"},"label":{"type":"string"}}},"userNotifications":{"type":"array","description":"(Optional) Email to which the alert and report notifications are sent.\n","items":{"type":"object","properties":{"notifyType":{"type":"string"},"notifyMethod":{"type":"string"},"notifyInputType":{"type":"string"},"notifyRecurringReport":{"type":"boolean"}}}},"roles":{"type":"array","description":"(Optional) Defines permission sets to user and user groups on devices and device groups. Assign roles to a user. See Search Roles API to get roles created under a partner or client.\n","items":{"type":"object","properties":{"name":{"type":"string"},"id":{"type":"integer"}}}},"userGroups":{"type":"array","description":"(Optional) Assign users to specific user groups. Provide name of the user group.Use Search User Groups API to get details of user groups.\n","items":{"type":"object","properties":{"name":{"type":"string"},"uniqueId":{"type":"string"}}}},"password\t":{"type":"string","description":"Password must have a minimum of 7 characters with at least:\n- One number (0-9)\n- One special character (#,!, $,*)\n- One lowercase (a-z)\n- One uppercase (A-Z) character"},"userAccountType":{"type":"string","description":"(Optional) User account type:\n- REGULAR\n- BUSINESS","enum":["REGULAR","BUSINESS"]},"userGroupType":{"type":"string","description":"(Optional) Assign users to all user groups, or specific users groups. A user can also be an individual user, NOT being part of any user group.\nSupported Values: ALL, NONE\n- If a user should be part of all user groups, provide userGroupType: ALL\n- If a user should be part of a specific user group, provide user group name.\nExample:\"userGroups\": [{ \"name\": \"Luminalto Admins\" }]\n- If a user should NOT be part of any user group, provide userGroupType: NONE","enum":["ALL","NONE"]},"authType":{"type":"string"},"status":{"type":"string"},"orgId":{"type":"string"},"profileImage":{"type":"object","properties":{"logoPath":{"type":"string"},"thumbPath":{"type":"string"},"tinyThumbPath":{"type":"string"}}},"organizationName":{"type":"string"},"createdTime":{"type":"string","format":"date-time"},"updatedTime":{"type":"string","format":"date-time"}}}},"assignedDeviceGroups":{"type":"array","items":{"title":"deviceGroup","type":"object","properties":{"id":{"type":"string"},"name":{"type":"string"},"description":{"type":"string"},"client":{"type":"object","properties":{"id":{"type":"integer"},"uniqueId":{"type":"string"},"name":{"type":"string"},"activated":{"type":"boolean"}}},"assignDevices":{"type":"array","items":{"title":"device","type":"object","properties":{"id":{"type":"string"},"generalInfo":{"type":"object","properties":{"osName":{"type":"string"},"ipAddresses":{"type":"string"},"hostName":{"type":"string"},"dns":{"type":"string"},"deviceType":{"type":"string"},"macAddress":{"type":"string"},"createdTime":{"type":"string","format":"date-time"},"updatedTime":{"type":"string","format":"date-time"}}},"bios":{"type":"object"},"status":{"type":"string"},"state":{"type":"string"},"clientUniqueId":{"type":"string"},"ipAddress":{"type":"string"},"type":{"type":"string"},"uniqueId":{"type":"string"}}}},"createdTime":{"type":"integer"},"updatedTime":{"type":"integer"},"deviceCount":{"type":"integer"}}}}}}},"requestBodyExamples":{"example-1":{"value":{"name":"01. CREATE CREDENTIAL","description":"TESTING FROM API","credentialType":"AWS","accountName":"12345","accountId":"John@superadmin","accountKey":"PASSWORD","timeoutMs":1500,"assignedDeviceGroups":[{"id":"1665"},{"id":"1790"}],"assignedDevices":[{"uniqueId":"DEV0000016029"},{"uniqueId":"DEV0000015402"}]}}},"responses":{"200":{"description":"OK","schema":{"title":"credentialSet","type":"object","properties":{"uniqueId":{"type":"string"},"name":{"type":"string","description":"Credential set name.\n"},"secure":{"type":"boolean"},"port":{"type":"integer"},"snmpVersion":{"type":"string"},"description":{"type":"string"},"autoEnableMode":{"type":"boolean"},"universal":{"type":"boolean"},"spSecure":{"type":"boolean"},"spPort":{"type":"integer"},"timeoutMs":{"type":"integer","description":"Time out, represented in milliseconds."},"credentialType":{"type":"string","description":"Credential type.","enum":["AWS","SNMP","WINDOWS","VNC","VMWARE"]},"domainName\t":{"type":"string","description":"Domain name."},"userName":{"type":"string","description":"Credentials of user."},"password":{"type":"string","description":"Credentials of user."},"transportType":{"type":"string","description":"Transport layer type.","enum":["HTTP","SNMP","SSH","TELNET"]},"community":{"type":"string"},"spUserName":{"type":"string"},"spPassword":{"type":"string"},"spAuthScope":{"type":"string"},"fileAuthScope":{"type":"string"},"esxUserName":{"type":"string"},"esxPassword":{"type":"string"},"spNameSpace":{"type":"string"},"authProtocol":{"type":"string"},"encryptPassword":{"type":"string"},"snmpContext":{"type":"string"},"securityLevel":{"type":"string","description":"Security level.","enum":["NOAUTHNOPRIV","AUTHPRIV","AUTHNOPRIV","BASIC","OAUTH2"]},"securityName":{"type":"string"},"apiEndPoint":{"type":"string"},"accountId":{"type":"string"},"accountName":{"type":"string"},"accountKey":{"type":"string"},"managementCertificate":{"type":"string"},"managementCertificatePassphrase":{"type":"string"},"sshCredentialType":{"type":"string","description":"SSH credential type.","enum":["PASSWORD","KEYPAIR"]},"collectorType":{"type":"string","description":"Collector type.","enum":["API","CLI","APIANDCLI","SMIS","UNKNOWN"]},"assignedDevices":{"type":"array","items":{"title":"device","type":"object","properties":{"id":{"type":"string"},"generalInfo":{"type":"object","properties":{"osName":{"type":"string"},"ipAddresses":{"type":"string"},"hostName":{"type":"string"},"dns":{"type":"string"},"deviceType":{"type":"string"},"macAddress":{"type":"string"},"createdTime":{"type":"string","format":"date-time"},"updatedTime":{"type":"string","format":"date-time"}}},"bios":{"type":"object"},"status":{"type":"string"},"state":{"type":"string"},"clientUniqueId":{"type":"string"},"ipAddress":{"type":"string"},"type":{"type":"string"},"uniqueId":{"type":"string"}}}},"enablePassword":{"type":"string"},"syncDataTS":{"type":"integer"},"assignedUsers":{"type":"array","items":{"title":"user","type":"object","properties":{"loginName":{"type":"string","description":"User login name."},"lastName":{"type":"string","description":"User last name"},"firstName":{"type":"string","description":"User first name."},"email":{"type":"string","description":"Email of the user. (Alert and report notifications are sent to the email address.)"},"id":{"type":"string"},"changePassword":{"type":"boolean"},"designation":{"type":"string","description":"(Optional) User designation."},"address":{"type":"string","description":"(Optional) User address."},"city":{"type":"string","description":"(Optional) City name."},"state":{"type":"string","description":"(Optional) State name.\n"},"zip":{"type":"string","description":"(Optional) Zip code.\n"},"country":{"type":"string","description":"Country name. To get the list of countries, use Get Countries API.\n"},"altEmail":{"type":"string"},"phoneNumber":{"type":"string","description":"(Optional) User phone number.\n"},"mobileNumber":{"type":"string","description":"(Optional) User mobile number.\n"},"timeZone":{"type":"object","description":"Time zone of the country. Use the Get Timezones API to get the list of timezones.\n\nExample: \"timeZone\": { \"code\": \"EST\"}","properties":{"code":{"type":"string"},"id":{"type":"string"},"name":{"type":"string"},"label":{"type":"string"}}},"userNotifications":{"type":"array","description":"(Optional) Email to which the alert and report notifications are sent.\n","items":{"type":"object","properties":{"notifyType":{"type":"string"},"notifyMethod":{"type":"string"},"notifyInputType":{"type":"string"},"notifyRecurringReport":{"type":"boolean"}}}},"roles":{"type":"array","description":"(Optional) Defines permission sets to user and user groups on devices and device groups. Assign roles to a user. See Search Roles API to get roles created under a partner or client.\n","items":{"type":"object","properties":{"name":{"type":"string"},"id":{"type":"integer"}}}},"userGroups":{"type":"array","description":"(Optional) Assign users to specific user groups. Provide name of the user group.Use Search User Groups API to get details of user groups.\n","items":{"type":"object","properties":{"name":{"type":"string"},"uniqueId":{"type":"string"}}}},"password\t":{"type":"string","description":"Password must have a minimum of 7 characters with at least:\n- One number (0-9)\n- One special character (#,!, $,*)\n- One lowercase (a-z)\n- One uppercase (A-Z) character"},"userAccountType":{"type":"string","description":"(Optional) User account type:\n- REGULAR\n- BUSINESS","enum":["REGULAR","BUSINESS"]},"userGroupType":{"type":"string","description":"(Optional) Assign users to all user groups, or specific users groups. A user can also be an individual user, NOT being part of any user group.\nSupported Values: ALL, NONE\n- If a user should be part of all user groups, provide userGroupType: ALL\n- If a user should be part of a specific user group, provide user group name.\nExample:\"userGroups\": [{ \"name\": \"Luminalto Admins\" }]\n- If a user should NOT be part of any user group, provide userGroupType: NONE","enum":["ALL","NONE"]},"authType":{"type":"string"},"status":{"type":"string"},"orgId":{"type":"string"},"profileImage":{"type":"object","properties":{"logoPath":{"type":"string"},"thumbPath":{"type":"string"},"tinyThumbPath":{"type":"string"}}},"organizationName":{"type":"string"},"createdTime":{"type":"string","format":"date-time"},"updatedTime":{"type":"string","format":"date-time"}}}},"assignedDeviceGroups":{"type":"array","items":{"title":"deviceGroup","type":"object","properties":{"id":{"type":"string"},"name":{"type":"string"},"description":{"type":"string"},"client":{"type":"object","properties":{"id":{"type":"integer"},"uniqueId":{"type":"string"},"name":{"type":"string"},"activated":{"type":"boolean"}}},"assignDevices":{"type":"array","items":{"title":"device","type":"object","properties":{"id":{"type":"string"},"generalInfo":{"type":"object","properties":{"osName":{"type":"string"},"ipAddresses":{"type":"string"},"hostName":{"type":"string"},"dns":{"type":"string"},"deviceType":{"type":"string"},"macAddress":{"type":"string"},"createdTime":{"type":"string","format":"date-time"},"updatedTime":{"type":"string","format":"date-time"}}},"bios":{"type":"object"},"status":{"type":"string"},"state":{"type":"string"},"clientUniqueId":{"type":"string"},"ipAddress":{"type":"string"},"type":{"type":"string"},"uniqueId":{"type":"string"}}}},"createdTime":{"type":"integer"},"updatedTime":{"type":"integer"},"deviceCount":{"type":"integer"}}}}}},"examples":{"example-1":{"value":{"uniqueId":"6rHBKNjsQcJM5ssqZ7NhmZsp","name":"01. CREATE CREDENTIAL","secure":false,"port":0,"snmpVersion":"V2","autoEnableMode":false,"universal":true,"spSecure":false,"spPort":0,"timeoutMs":0,"assignedUsers":[],"assignedDevices":[],"assignedAcls":[],"assignedDeviceGroups":[]}}}}}},"get":{"description":"Gets a credential set.","parameters":[{"schema":{"type":"integer","default":"1"},"in":"query","name":"pageNo"},{"schema":{"type":"integer","default":"100"},"in":"query","name":"pageSize"},{"schema":{"type":"string","default":"note.id"},"in":"query","name":"sortName"},{"schema":{"type":"boolean","default":"true"},"in":"query","name":"isDescendingOrder"}],"responses":{"200":{"description":"OK","schema":{"type":"object","properties":{"results":{"type":"array","items":{"title":"credentialSet","type":"object","properties":{"uniqueId":{"type":"string"},"name":{"type":"string","description":"Credential set name.\n"},"secure":{"type":"boolean"},"port":{"type":"integer"},"snmpVersion":{"type":"string"},"description":{"type":"string"},"autoEnableMode":{"type":"boolean"},"universal":{"type":"boolean"},"spSecure":{"type":"boolean"},"spPort":{"type":"integer"},"timeoutMs":{"type":"integer","description":"Time out, represented in milliseconds."},"credentialType":{"type":"string","description":"Credential type.","enum":["AWS","SNMP","WINDOWS","VNC","VMWARE"]},"domainName\t":{"type":"string","description":"Domain name."},"userName":{"type":"string","description":"Credentials of user."},"password":{"type":"string","description":"Credentials of user."},"transportType":{"type":"string","description":"Transport layer type.","enum":["HTTP","SNMP","SSH","TELNET"]},"community":{"type":"string"},"spUserName":{"type":"string"},"spPassword":{"type":"string"},"spAuthScope":{"type":"string"},"fileAuthScope":{"type":"string"},"esxUserName":{"type":"string"},"esxPassword":{"type":"string"},"spNameSpace":{"type":"string"},"authProtocol":{"type":"string"},"encryptPassword":{"type":"string"},"snmpContext":{"type":"string"},"securityLevel":{"type":"string","description":"Security level.","enum":["NOAUTHNOPRIV","AUTHPRIV","AUTHNOPRIV","BASIC","OAUTH2"]},"securityName":{"type":"string"},"apiEndPoint":{"type":"string"},"accountId":{"type":"string"},"accountName":{"type":"string"},"accountKey":{"type":"string"},"managementCertificate":{"type":"string"},"managementCertificatePassphrase":{"type":"string"},"sshCredentialType":{"type":"string","description":"SSH credential type.","enum":["PASSWORD","KEYPAIR"]},"collectorType":{"type":"string","description":"Collector type.","enum":["API","CLI","APIANDCLI","SMIS","UNKNOWN"]},"assignedDevices":{"type":"array","items":{"title":"device","type":"object","properties":{"id":{"type":"string"},"generalInfo":{"type":"object","properties":{"osName":{"type":"string"},"ipAddresses":{"type":"string"},"hostName":{"type":"string"},"dns":{"type":"string"},"deviceType":{"type":"string"},"macAddress":{"type":"string"},"createdTime":{"type":"string","format":"date-time"},"updatedTime":{"type":"string","format":"date-time"}}},"bios":{"type":"object"},"status":{"type":"string"},"state":{"type":"string"},"clientUniqueId":{"type":"string"},"ipAddress":{"type":"string"},"type":{"type":"string"},"uniqueId":{"type":"string"}}}},"enablePassword":{"type":"string"},"syncDataTS":{"type":"integer"},"assignedUsers":{"type":"array","items":{"title":"user","type":"object","properties":{"loginName":{"type":"string","description":"User login name."},"lastName":{"type":"string","description":"User last name"},"firstName":{"type":"string","description":"User first name."},"email":{"type":"string","description":"Email of the user. (Alert and report notifications are sent to the email address.)"},"id":{"type":"string"},"changePassword":{"type":"boolean"},"designation":{"type":"string","description":"(Optional) User designation."},"address":{"type":"string","description":"(Optional) User address."},"city":{"type":"string","description":"(Optional) City name."},"state":{"type":"string","description":"(Optional) State name.\n"},"zip":{"type":"string","description":"(Optional) Zip code.\n"},"country":{"type":"string","description":"Country name. To get the list of countries, use Get Countries API.\n"},"altEmail":{"type":"string"},"phoneNumber":{"type":"string","description":"(Optional) User phone number.\n"},"mobileNumber":{"type":"string","description":"(Optional) User mobile number.\n"},"timeZone":{"type":"object","description":"Time zone of the country. Use the Get Timezones API to get the list of timezones.\n\nExample: \"timeZone\": { \"code\": \"EST\"}","properties":{"code":{"type":"string"},"id":{"type":"string"},"name":{"type":"string"},"label":{"type":"string"}}},"userNotifications":{"type":"array","description":"(Optional) Email to which the alert and report notifications are sent.\n","items":{"type":"object","properties":{"notifyType":{"type":"string"},"notifyMethod":{"type":"string"},"notifyInputType":{"type":"string"},"notifyRecurringReport":{"type":"boolean"}}}},"roles":{"type":"array","description":"(Optional) Defines permission sets to user and user groups on devices and device groups. Assign roles to a user. See Search Roles API to get roles created under a partner or client.\n","items":{"type":"object","properties":{"name":{"type":"string"},"id":{"type":"integer"}}}},"userGroups":{"type":"array","description":"(Optional) Assign users to specific user groups. Provide name of the user group.Use Search User Groups API to get details of user groups.\n","items":{"type":"object","properties":{"name":{"type":"string"},"uniqueId":{"type":"string"}}}},"password\t":{"type":"string","description":"Password must have a minimum of 7 characters with at least:\n- One number (0-9)\n- One special character (#,!, $,*)\n- One lowercase (a-z)\n- One uppercase (A-Z) character"},"userAccountType":{"type":"string","description":"(Optional) User account type:\n- REGULAR\n- BUSINESS","enum":["REGULAR","BUSINESS"]},"userGroupType":{"type":"string","description":"(Optional) Assign users to all user groups, or specific users groups. A user can also be an individual user, NOT being part of any user group.\nSupported Values: ALL, NONE\n- If a user should be part of all user groups, provide userGroupType: ALL\n- If a user should be part of a specific user group, provide user group name.\nExample:\"userGroups\": [{ \"name\": \"Luminalto Admins\" }]\n- If a user should NOT be part of any user group, provide userGroupType: NONE","enum":["ALL","NONE"]},"authType":{"type":"string"},"status":{"type":"string"},"orgId":{"type":"string"},"profileImage":{"type":"object","properties":{"logoPath":{"type":"string"},"thumbPath":{"type":"string"},"tinyThumbPath":{"type":"string"}}},"organizationName":{"type":"string"},"createdTime":{"type":"string","format":"date-time"},"updatedTime":{"type":"string","format":"date-time"}}}},"assignedDeviceGroups":{"type":"array","items":{"title":"deviceGroup","type":"object","properties":{"id":{"type":"string"},"name":{"type":"string"},"description":{"type":"string"},"client":{"type":"object","properties":{"id":{"type":"integer"},"uniqueId":{"type":"string"},"name":{"type":"string"},"activated":{"type":"boolean"}}},"assignDevices":{"type":"array","items":{"title":"device","type":"object","properties":{"id":{"type":"string"},"generalInfo":{"type":"object","properties":{"osName":{"type":"string"},"ipAddresses":{"type":"string"},"hostName":{"type":"string"},"dns":{"type":"string"},"deviceType":{"type":"string"},"macAddress":{"type":"string"},"createdTime":{"type":"string","format":"date-time"},"updatedTime":{"type":"string","format":"date-time"}}},"bios":{"type":"object"},"status":{"type":"string"},"state":{"type":"string"},"clientUniqueId":{"type":"string"},"ipAddress":{"type":"string"},"type":{"type":"string"},"uniqueId":{"type":"string"}}}},"createdTime":{"type":"integer"},"updatedTime":{"type":"integer"},"deviceCount":{"type":"integer"}}}}}}},"totalResults":{"type":"integer"},"orderBy":{"type":"string"},"pageNo":{"type":"integer"},"pageSize":{"type":"integer"},"totalPages":{"type":"integer"},"nextPage":{"type":"boolean"},"nextPageNo":{"type":"integer"},"previousPageNo":{"type":"integer"},"descendingOrder":{"type":"boolean"}}},"examples":{"example-1":{"value":{"results":[{"uniqueId":"6bupAEC8NhxSHbsEnHJv6w7T","name":"AWS Instance Credentials","secure":false,"port":0,"snmpVersion":"V2","description":"Credentials to onboard AWS instance","autoEnableMode":false,"universal":true,"spSecure":false,"spPort":0,"timeoutMs":15000},{"uniqueId":"cnTcDUueHt9sGKCyQFhm9JMV","name":"Azure Instance Credentials","secure":true,"port":440,"snmpVersion":"V2","description":"Credentials to onboard Azure instance","autoEnableMode":false,"universal":true,"spSecure":false,"spPort":0,"timeoutMs":15000},{"uniqueId":"jpsMQpS2cZawQyBfHHqvZQ8u","id":337,"name":"Linux Device Credentials","secure":false,"port":161,"snmpVersion":"V1","description":"Credentials to onboard Linux device","autoEnableMode":false,"universal":true,"spSecure":false,"spPort":0,"timeoutMs":15000},{"uniqueId":"7ff95c99f747bedb4ac1c2f5","id":249,"name":"Windows Device Credenitals","secure":false,"port":0,"snmpVersion":"V2","description":"Credentials to onboard Windows device","autoEnableMode":false,"universal":true,"spSecure":false,"spPort":0,"timeoutMs":0},{"uniqueId":"q76t5qr6zAhFeNyZJabcbj54","id":301,"name":"VMware Credentials","secure":true,"port":5989,"snmpVersion":"V2","description":"Credentials to onboard VMware device","autoEnableMode":false,"universal":true,"spSecure":false,"spPort":0,"timeoutMs":15000}],"totalResults":10,"orderBy":"c.name","pageNo":1,"pageSize":5,"totalPages":2,"nextPage":true,"nextPageNo":2,"previousPageNo":0,"descendingOrder":false}}}}}}},"parameters":[{"in":"path","name":"tenantId","schema":{"type":"string"},"required":true}]}