{"summary":"Get incident responses","description":"Gets responses of an incident.\n\n##### Query Variables\n\n|Query Variable|Values|Description|\n|-----|----|-----|\n|startCreationDate|NA|Filter response with request creation date. Provide from date.<br>Example: 2016-03-29T10:15:55 0000 (GMT)|\n|endCreationDate|NA|Filter response with request creation date. Provide to date.<br>Example: 2016-03-31T11:20:55 0000 (GMT)|\n|internal|true, false|Internal or universal responses:<br>- If internal=true gets only the internal responses.<br>- If internal=false gets global responses.<br>- By default it gets all responses of the ticket.|\n\n##### Notes\nThere are special characters that can be used in a query string:\n- (+) represents the next field and must be URL-encoded.\n- (:) represents equals. An example is `key : value`.\n- Space characters must be URL-encoded.\n- Date format must be yyyy-MM-ddTHH:mm:ssZ (GMT)","operations":{"get":{"description":"","parameters":[{"schema":{"type":"integer","default":"1"},"in":"query","name":"pageNo"},{"schema":{"type":"integer","default":"100"},"in":"query","name":"pageSize"},{"schema":{"type":"string","default":"response.id"},"in":"query","name":"sortName"},{"schema":{"type":"boolean","default":"true"},"in":"query","name":"isDescendingOrder"},{"schema":{"type":"string"},"in":"query","name":"queryString"}],"responses":{"200":{"description":"OK","schema":{"type":"object","properties":{"results":{"type":"array","items":{"title":"incidentResponse","type":"object","properties":{"description":{"type":"string"},"internal":{"type":"boolean"},"creator":{"title":"user","type":"object","properties":{"id":{"type":"string"},"loginName":{"type":"string"},"lastName":{"type":"string"},"firstName":{"type":"string"},"email":{"type":"string"},"phoneNumber":{"type":"string"}}},"tags":{"type":"string"},"attachments":{"type":"array","items":{"title":"attachment","type":"object","properties":{"name":{"type":"string"},"file":{"type":"string"},"id":{"type":"integer"},"createdDate":{"type":"string","format":"date-time"},"contentURL":{"type":"string"}}}},"extTicketResponseId":{"type":"string"},"createdDate":{"type":"string","format":"date-time"},"hasAttachments":{"type":"boolean"},"timeSpent":{"type":"integer"}}}},"totalResults":{"type":"integer"},"orderBy":{"type":"string"},"pageNo":{"type":"integer"},"pageSize":{"type":"integer"},"totalPages":{"type":"integer"},"nextPage":{"type":"boolean"},"nextPageNo":{"type":"integer"},"previousPageNo":{"type":"integer"},"descendingOrder":{"type":"boolean"}}},"examples":{"example-1":{"value":{"results":[{"creator":{"id":"USR0000002146","loginName":"FSSL-API-Lab-User-1","lastName":"API-Lab","firstName":"FSSL","email":"tester@gmail.com"},"createdDate":"2016-03-29T12:56:15+0000","attachments":[{"id":108,"name":"2.txt","createdDate":"2016-03-29T12:56:15+0000","contentURL":"https://<api-url>/api/v2/tenants/client_1000/incidents/INC0000001114/responses/1913/resources/108"},{"id":109,"name":"1.txt","createdDate":"2016-03-29T12:56:15+0000","contentURL":"https://<api-url>/api/v2/tenants/client_1000/incidents/INC0000001114/responses/1913/resources/109"}],"hasAttachments":true,"tags":"tag1,tag2","extTicketResponseId":"12345","internal":false,"description":"Testing response"},{"creator":{"id":"USR0000002095","loginName":"John.Smith","lastName":"Smith","firstName":"John","email":"john.smith@domain.com"},"createdDate":"2016-03-29T12:42:49+0000","hasAttachments":false,"internal":false,"description":"Testing description-update"}],"totalResults":6,"orderBy":"response.id","pageNo":1,"pageSize":2,"totalPages":3,"nextPage":true,"nextPageNo":2,"previousPageNo":0,"descendingOrder":true}}}}}}},"parameters":[{"in":"path","name":"tenantId","schema":{"type":"string"},"required":true,"description":"Describes clientId or mspId of the tenant"},{"name":"incidentId","in":"path","required":true,"schema":{"type":"string"},"description":"Unique Identifier (UUID) of incident"}]}