{"summary":"Create and get ticket notes","description":"Creates and gets ticket notes.","operations":{"post":{"description":"Creates ticket notes.","parameters":"","requestBody":{"content":"application/json","schema":{"type":"object","properties":{"description":{"type":"string"}}}},"requestBodyExamples":{"example-1":{"value":{"description":"Sample description of Note"}}},"responses":{"200":{"description":"OK","schema":{"type":"object","properties":{"id":{"type":"integer"},"subject":{"type":"string"}}},"examples":{"example-1":{"value":{"id":15,"subject":"Sample Note"}}}}}},"get":{"description":"Gets multiple notes from a ticket.\n\n|Query Variable|Description|\n|----|-----|\n|searchWord|Search for a note with a specific word provided in the note.|\n|id|Note ID|\n|startCreationDate|Search for note created within a specific date range. startCreationDate denotes the from date.|\n|endCreationDate|endCreationDate denotes the to date.|\n|startUpdationDate|Search for the note updated within a specific date range. startUpdationDate denotes the from date.|\n|endUpdationDate|endUpdationDate denotes the to date.|\n\n>##### Notes\n>There are special characters that can be used in a query string:\n>- (+) represents the next field and must be URL-encoded.\n>- (:) represents equals. An example is `key : value`.\n>- Space characters must be URL-encoded.\n>- Date format must be yyyy-MM-ddTHH:mm:ssZ (GMT)","parameters":[{"schema":{"type":"integer","default":"1"},"in":"query","name":"pageNo"},{"schema":{"type":"integer","default":"100"},"in":"query","name":"pageSize"},{"schema":{"type":"string","default":"note.id"},"in":"query","name":"sortName"},{"schema":{"type":"boolean","default":"true"},"in":"query","name":"isDescendingOrder"},{"schema":{"type":"string"},"in":"query","name":"queryString"}],"responses":{"200":{"description":"OK","schema":{"type":"object","properties":{"results":{"type":"array","items":{"title":"note","type":"object","properties":{"id":{"type":"integer"},"subject":{"type":"string"},"description":{"type":"string"},"createdTime":{"type":"string"},"updatedTime":{"type":"string"},"createdBy":{"title":"user","type":"object","properties":{"id":{"type":"string"},"loginName":{"type":"string"},"lastName":{"type":"string"},"firstName":{"type":"string"},"email":{"type":"string"},"phoneNumber":{"type":"string"}}}}}},"totalResults":{"type":"integer"},"orderBy":{"type":"string"},"pageNo":{"type":"integer"},"pageSize":{"type":"integer"},"totalPages":{"type":"integer"},"nextPage":{"type":"boolean"},"nextPageNo":{"type":"integer"},"previousPageNo":{"type":"integer"},"descendingOrder":{"type":"boolean"}}},"examples":{"example-1":{"value":{"results":[{"id":12,"subject":"this notes","description":"this notes is created and updated from api 1","createdTime":"2015-11-02T09:17:09+0000","updatedTime":"","createdBy":{"id":"USR0000002095","loginName":"John.Smith","lastName":"Smith","firstName":"John","email":"john.smith@domain.com","changePassword":false}},{"id":10,"subject":"note31","description":"note31","createdTime":"2015-10-27T13:39:17+0000","updatedTime":"","createdBy":{"id":"USR0000002113","loginName":"james@superadmin","lastName":"HUDSON","firstName":"JAMES","email":"james.hudson@domain.com","changePassword":false}},{"id":8,"subject":"this notes","description":"this notes is created and updated from api","createdTime":"2015-10-27T13:19:01+0000","updatedTime":"","createdBy":{"id":"USR0000002095","loginName":"John.Smith","lastName":"Smith","firstName":"John","email":"john.smith@domain.com","changePassword":false}}],"totalResults":6,"orderBy":"note.id","pageNo":1,"pageSize":3,"totalPages":2,"nextPage":true,"nextPageNo":2,"previousPageNo":0,"descendingOrder":true}}}}}}},"parameters":[{"in":"path","name":"tenantId","schema":{"type":"string"},"required":true},{"schema":{"type":"string","enum":["incidents","serviceRequests","changeRequests","timeBoundRequests","problems","tasks"]},"in":"path","name":"ticketType","required":true},{"schema":{"type":"string"},"in":"path","name":"ticketId","required":true}]}