{"summary":"Search tenant custom attribute types and values","description":"Searches for tenant custom attribute types and respective values.","operations":{"get":{"description":"","parameters":[{"schema":{"type":"integer","default":"1"},"in":"query","name":"pageNo"},{"schema":{"type":"integer","default":"100"},"in":"query","name":"pageSize"},{"schema":{"type":"boolean","default":"true"},"in":"query","name":"isDescendingOrder"},{"schema":{"type":"string","default":"id"},"in":"query","name":"sortName"},{"schema":{"type":"string"},"in":"query","name":"queryString"}],"responses":{"200":{"description":"OK","schema":{"type":"object","properties":{"results":{"type":"array","items":{"title":"customAttributeTypes","type":"object","properties":{"id":{"type":"integer"},"name":{"type":"string"},"description":{"type":"string"},"customAttributeValues":{"type":"array","items":{"title":"customAttributeValue","type":"object","properties":{"id":{"type":"integer"},"customAttribute":{"type":"object","properties":{"id":{"type":"integer"},"name":{"type":"string"},"description":{"type":"string"},"organization":{"title":"organization","type":"object","properties":{"id":{"type":"integer"},"uniqueId":{"type":"string"},"name":{"type":"string"},"activated":{"type":"boolean"}}}}},"value":{"type":"string","description":"Values of the custom attributes values.\n"},"description":{"type":"string"}}}},"organization":{"title":"organization","type":"object","properties":{"id":{"type":"integer"},"uniqueId":{"type":"string"},"name":{"type":"string"},"activated":{"type":"boolean"}}}}}},"totalResults":{"type":"integer"},"orderBy":{"type":"string"},"pageNo":{"type":"integer"},"pageSize":{"type":"integer"},"totalPages":{"type":"integer"},"nextPage":{"type":"boolean"},"nextPageNo":{"type":"integer"},"previousPageNo":{"type":"integer"},"descendingOrder":{"type":"boolean"}}},"examples":{"example-1":{"value":{"results":[{"id":63,"name":"custom_attr_from_API_test_1","description":"custom_attr_from_API_test_1_update","customAttributeValues":[{"id":396,"value":"custom_attr_from_API_test_1_value","description":"desc_custom_attr_from_API_test_1_update_1"},{"id":399,"value":"custom_attr_from_API_test_2_value","description":"custom_attr_from_API_test_2_value_description"}],"organization":{"id":93,"uniqueId":"client_93","name":"Brocade Lab","activated":true}},{"id":61,"name":"test case","description":"test case","customAttributeValues":[{"id":393,"value":"custom attribute values","description":"test case example"},{"id":392,"value":"value","description":"test case"},{"id":394,"value":"value for test case","description":"test case value"}],"organization":{"id":93,"uniqueId":"client_93","name":"Brocade Lab","activated":true}},{"id":60,"name":"Test","customAttributeValues":[{"id":387,"value":"ELB"}],"organization":{"id":93,"uniqueId":"client_93","name":"Brocade Lab","activated":true}},{"id":59,"name":"Test-Tag-Key1","customAttributeValues":[{"id":375,"value":"Test-Tag-Key-Value1"}],"organization":{"id":93,"uniqueId":"client_93","name":"Brocade Lab","activated":true}},{"id":58,"name":"aws:autoscaling:groupName","customAttributeValues":[{"id":373,"value":"acme-web-as-group"},{"id":385,"value":"opsramp-autoscale-webapp"}],"organization":{"id":93,"uniqueId":"client_93","name":"Brocade Lab","activated":true}},{"id":57,"name":"Name","customAttributeValues":[{"id":382,"value":"acme-ecomm-aws-api1"},{"id":367,"value":"acme-ecomm-aws-api2"},{"id":364,"value":"acme-ecomm-aws-api3"},{"id":365,"value":"acme-ecomm-aws-cache1"},{"id":381,"value":"acme-ecomm-aws-cache2"}],"organization":{"id":93,"uniqueId":"client_93","name":"Brocade Lab","activated":true}}],"totalResults":6,"orderBy":"tag.id","pageNo":1,"pageSize":2,"totalPages":3,"nextPage":true,"nextPageNo":2,"previousPageNo":0,"descendingOrder":true}}}}}}},"parameters":[{"in":"path","name":"tenantId","schema":{"type":"string"},"required":true,"description":"Describes the client ID or msp ID of the tenant"}]}